﻿


EVENT   1
 PAGE   1
  281(1)
  250(bytes(0x04,0x08,0x6f,0x3a,0x0c,0x52,0x50,0x47,0x3a,0x3a,0x53,0x45,0x08,0x3a,0x0a,0x40,0x6e,0x61,0x6d,0x65,0x49,0x22,0x09,0x4d,0x6f,0x76,0x65,0x06,0x3a,0x06,0x45,0x54,0x3a,0x0b,0x40,0x70,0x69,0x74,0x63,0x68,0x69,0x69,0x3a,0x0c,0x40,0x76,0x6f,0x6c,0x75,0x6d,0x65,0x69,0x55))
  TeleportPlayer(0,57,22,10,0,0)
  0()



EVENT   2
 PAGE   1
  281(1)
  250(bytes(0x04,0x08,0x6f,0x3a,0x0c,0x52,0x50,0x47,0x3a,0x3a,0x53,0x45,0x08,0x3a,0x0a,0x40,0x6e,0x61,0x6d,0x65,0x49,0x22,0x09,0x4d,0x6f,0x76,0x65,0x06,0x3a,0x06,0x45,0x54,0x3a,0x0b,0x40,0x70,0x69,0x74,0x63,0x68,0x69,0x69,0x3a,0x0c,0x40,0x76,0x6f,0x6c,0x75,0x6d,0x65,0x69,0x55))
  TeleportPlayer(0,57,28,16,0,0)
  0()



EVENT   3
 PAGE   1
  ShowMessageFace("",0,0,2,1)
  ShowMessage("It looks like you could rest here for a bit...")
  221()
  249(bytes(0x04,0x08,0x6f,0x3a,0x0c,0x52,0x50,0x47,0x3a,0x3a,0x4d,0x45,0x08,0x3a,0x0a,0x40,0x6e,0x61,0x6d,0x65,0x49,0x22,0x08,0x49,0x6e,0x6e,0x06,0x3a,0x06,0x45,0x54,0x3a,0x0b,0x40,0x70,0x69,0x74,0x63,0x68,0x69,0x69,0x3a,0x0c,0x40,0x76,0x6f,0x6c,0x75,0x6d,0x65,0x69,0x69))
  Wait(150)
  314(0,0)
  222()
  0()



EVENT   4
 PAGE   1
  ShowMessageFace("",0,0,2,1)
  ShowMessage("It looks like you could rest here for a bit...")
  221()
  249(bytes(0x04,0x08,0x6f,0x3a,0x0c,0x52,0x50,0x47,0x3a,0x3a,0x4d,0x45,0x08,0x3a,0x0a,0x40,0x6e,0x61,0x6d,0x65,0x49,0x22,0x08,0x49,0x6e,0x6e,0x06,0x3a,0x06,0x45,0x54,0x3a,0x0b,0x40,0x70,0x69,0x74,0x63,0x68,0x69,0x69,0x3a,0x0c,0x40,0x76,0x6f,0x6c,0x75,0x6d,0x65,0x69,0x69))
  Wait(150)
  314(0,0)
  222()
  0()

EVENT   5
 PAGE   1
  ShowMessageFace("",0,0,2,1)
  ShowMessage("There are recipes for food scattered all over the floor!")
  If(0,4,0)
   ShowMessageFace("alice_fc5",0,0,2,2)
   ShowMessage("\\n<Alice>Look at all these recipes! Did a chef live here? Hmmm, there's even a certificate of excellence...")
   0()
  EndIf()
  If(0,5,0)
   ShowMessageFace("iriasu_fc4",2,0,2,3)
   ShowMessage("\\n<Ilias>If I'm not mistaken, a prominent chef lived here. Indeed, here is a certificate of excellence in cooking.")
   0()
  EndIf()
  ShowMessageFace("",0,0,2,4)
  ShowMessage("The certificate reads 'Permanent 3-star chef Alfonso.'")
  ShowMessageFace("ruka_fc1",0,0,2,5)
  ShowMessage("\\n<Luka>I've heard that name before. He was supposed to be a legendary chef.")
  ShowMessageFace("ruka_fc1",0,0,2,6)
  ShowMessage("\\n<Luka>But he was never heard from again after this village was destroyed. This is definitely where he lived, at least.")
  If(0,4,0)
   ShowMessageFace("alice_fc5",3,0,2,7)
   ShowMessage("\\n<Alice>What idiots would kill him... Idiots, idiots, all of them!")
   0()
  EndIf()
  If(0,5,0)
   ShowMessageFace("iriasu_fc4",2,0,2,8)
   ShowMessage("\\n<Ilias>Some of my angels were known to disguise themselves as human in order to taste his cooking. Such a regrettable waste of talent...")
   0()
  EndIf()
  0()



EVENT   6
 PAGE   1
  // condition: switch 4 is ON
  // condition: variable 1001 >= 10
  PictureDisplay(5,"80_iriasu_st33",0,0,0,0,100,100,0,0)
  PictureMove(5,null,0,0,0,0,100,100,255,0,30,true)
  ShowMessageFace("iriasu_fc4",2,0,2,1)
  ShowMessage("\\n<Ilias>Ahh, finally somewhere to rest. I'd love to sleep in a nice warm bed...")
  ShowMessageFace("alice_fc5",0,0,2,2)
  ShowMessage("\\n<Alice>Hmph, Ilias again... Heading to Tartarus I assume?")
  PictureDisplay(5,"80_iriasu_st38",0,0,0,0,100,100,255,0)
  ShowMessageFace("iriasu_fc4",7,0,2,3)
  ShowMessage("\\n<Ilias>Do you even understand a thing about Tartarus? It's a tunnel to parallel worlds...")
  ShowMessageFace("ruka_fc1",0,0,2,4)
  ShowMessage("\\n<Luka>Parallel worlds? You mean the other world we saw?")
  ShowMessageFace("iriasu_fc4",7,0,2,5)
  ShowMessage("\\n<Ilias>Yes. That was a different possibility for the world we live in. It is conceivable that it was created as a result of some paradox.")
  ShowMessageFace("ruka_fc1",0,0,2,6)
  ShowMessage("\\n<Luka>...paradox?")
  PictureDisplay(5,"80_iriasu_st33",0,0,0,0,100,100,255,0)
  ShowMessageFace("iriasu_fc4",2,0,2,7)
  ShowMessage("\\n<Ilias>The other world resulted from spacetime itself, like someone pressed the wrong button. I am still investigating just why it exists though...")
  PictureDisplay(5,"80_iriasu_st38",0,0,0,0,100,100,255,0)
  ShowMessageFace("iriasu_fc4",7,0,2,8)
  ShowMessage("\\n<Ilias>Furthermore, the transformed humans seen in Tartarus are the result of something called the apoptosis effect.")
  ShowMessageFace("iriasu_fc4",7,0,2,9)
  ShowMessage("\\n<Ilias>It is caused by holy and dark energies from distortions in spacetime breaking down organisms.")
  If(4,79,0)
   ShowMessageFace("nuruko_fc1",0,0,2,10)
   ShowMessage("\\n<Nuruko>Kyu kyu!")
   0()
  EndIf()
  If(0,6,0)
   ShowMessageFace("sonia_fc3",7,0,2,11)
   ShowMessage("\\n<Sonya>What in the world could have caused something like that...")
   0()
  Else()
   ShowMessageFace("ruka_fc1",0,0,2,12)
   ShowMessage("\\n<Luka>Why would that even happen...")
   0()
  EndIf()
  PictureDisplay(5,"80_iriasu_st33",0,0,0,0,100,100,255,0)
  ShowMessageFace("iriasu_fc4",2,0,2,13)
  ShowMessage("\\n<Ilias>That is precisely what I am investigating.")
  ShowMessageFace("ruka_fc1",0,0,2,14)
  ShowMessage("\\n<Luka>......")
  If(4,68,0)
   ShowMessageFace("dragonp_fc1",0,0,2,15)
   ShowMessage("\\n<Papi>??? So what does this all mean...?")
   If(4,64,0)
    ShowMessageFace("pramia_fc1",0,0,2,16)
    ShowMessage("\\n<Teeny>It means no one has any idea...")
    0()
   EndIf()
   0()
  EndIf()
  PictureMove(5,null,0,0,0,0,100,100,0,0,30,true)
  PictureClear(5)
  EndEventProcessing()
  0()
 PAGE   2
  // condition: variable 1001 >= 11
  0()



EVENT   7
 PAGE   1
  // condition: switch 4 is ON
  // condition: variable 1001 >= 10
  ShowMessageFace("slime_fc1",0,0,2,1)
  ShowMessage("\\n<Puruko>I'm adventuring with Ilias! ♪ Puru puru puru! ♪")
  355("actor_label_jump")
  EndEventProcessing()
  DefineLabel("53")
  ShowMessageFace("slime_fc1",0,0,2,2)
  ShowMessage("\\n<Lime>Let's both work hard! ♪")
  EndEventProcessing()
  DefineLabel("54")
  ShowMessageFace("bunnyslime_fc1",0,0,2,3)
  ShowMessage("\\n<Bunni>Hoppity hop! Adventuring is fun, isn't it? ♪")
  EndEventProcessing()
  DefineLabel("55")
  ShowMessageFace("name_fc1",0,0,2,4)
  ShowMessage("\\n<Melk>Slimes aren't very useful companions...")
  EndEventProcessing()
  0()
 PAGE   2
  // condition: variable 1001 >= 11
  0()



EVENT   8
 PAGE   1
  250(bytes(0x04,0x08,0x6f,0x3a,0x0c,0x52,0x50,0x47,0x3a,0x3a,0x53,0x45,0x08,0x3a,0x0a,0x40,0x6e,0x61,0x6d,0x65,0x49,0x22,0x0a,0x49,0x74,0x65,0x6d,0x31,0x06,0x3a,0x06,0x45,0x54,0x3a,0x0b,0x40,0x70,0x69,0x74,0x63,0x68,0x69,0x69,0x3a,0x0c,0x40,0x76,0x6f,0x6c,0x75,0x6d,0x65,0x69,0x55))
  ChangeSelfSwitch("A",0)
  ChangeInventory_Item(4,0,0,1)
  0()
 PAGE   2
  // condition: self-switch A is ON
  0()



EVENT   9
 PAGE   1
  250(bytes(0x04,0x08,0x6f,0x3a,0x0c,0x52,0x50,0x47,0x3a,0x3a,0x53,0x45,0x08,0x3a,0x0a,0x40,0x6e,0x61,0x6d,0x65,0x49,0x22,0x0a,0x49,0x74,0x65,0x6d,0x31,0x06,0x3a,0x06,0x45,0x54,0x3a,0x0b,0x40,0x70,0x69,0x74,0x63,0x68,0x69,0x69,0x3a,0x0c,0x40,0x76,0x6f,0x6c,0x75,0x6d,0x65,0x69,0x55))
  ChangeSelfSwitch("A",0)
  ChangeInventory_Item(32,0,0,1)
  0()
 PAGE   2
  // condition: self-switch A is ON
  0()



EVENT   10
 PAGE   1
  250(bytes(0x04,0x08,0x6f,0x3a,0x0c,0x52,0x50,0x47,0x3a,0x3a,0x53,0x45,0x08,0x3a,0x0a,0x40,0x6e,0x61,0x6d,0x65,0x49,0x22,0x0a,0x49,0x74,0x65,0x6d,0x31,0x06,0x3a,0x06,0x45,0x54,0x3a,0x0b,0x40,0x70,0x69,0x74,0x63,0x68,0x69,0x69,0x3a,0x0c,0x40,0x76,0x6f,0x6c,0x75,0x6d,0x65,0x69,0x55))
  ChangeSelfSwitch("A",0)
  ChangeInventory_Item(432,0,0,1)
  0()
 PAGE   2
  // condition: self-switch A is ON
  0()



EVENT   11
 PAGE   1
  250(bytes(0x04,0x08,0x6f,0x3a,0x0c,0x52,0x50,0x47,0x3a,0x3a,0x53,0x45,0x08,0x3a,0x0a,0x40,0x6e,0x61,0x6d,0x65,0x49,0x22,0x0a,0x49,0x74,0x65,0x6d,0x31,0x06,0x3a,0x06,0x45,0x54,0x3a,0x0b,0x40,0x70,0x69,0x74,0x63,0x68,0x69,0x69,0x3a,0x0c,0x40,0x76,0x6f,0x6c,0x75,0x6d,0x65,0x69,0x55))
  ChangeSelfSwitch("A",0)
  ChangeInventoryWeapon(297,0,0,1,false)
  0()
 PAGE   2
  // condition: self-switch A is ON
  0()


