﻿// EVENT 4247
Name "Candle Girl 2"

If(0,25,1)
 221()
 PictureClear(5)
 PictureClear(6)
 ShowMessageFace("",0,0,2,1)
 ShowMessage("・・・・・・・・")
 242(2)
 Wait(120)
 241(bytes(0x04,0x08,0x6f,0x3a,0x0d,0x52,0x50,0x47,0x3a,0x3a,0x42,0x47,0x4d,0x08,0x3a,0x0a,0x40,0x6e,0x61,0x6d,0x65,0x49,0x22,0x0c,0x63,0x61,0x73,0x74,0x6c,0x65,0x36,0x06,0x3a,0x06,0x45,0x54,0x3a,0x0c,0x40,0x76,0x6f,0x6c,0x75,0x6d,0x65,0x69,0x69,0x3a,0x0b,0x40,0x70,0x69,0x74,0x63,0x68,0x69,0x69))
 EndEventProcessing()
 0()
EndIf()
PictureDisplay(5,"80_candle_st01",0,0,0,0,100,100,255,0)
ShowMessageFace("candle_fc1",0,0,2,2)
ShowMessage("\\n<Chandra>")
ShowMessage("You want me to pleasure you with my breasts...?")
ShowMessageFace("",0,0,2,3)
ShowMessage("\\n<Luka>")
ShowMessage("P-please...")
ShowMessageFace("candle_fc1",0,0,2,4)
ShowMessage("\\n<Chandra>")
ShowMessage("You're a naughty child to ask an ally something like that.")
ShowMessage("This time it's special...")
ShowMessageFace("",0,0,2,5)
ShowMessage("chandra bends over my lower body...")
ShowMessage("And puts my penis between her plump breasts.")
241(bytes(0x04,0x08,0x6f,0x3a,0x0d,0x52,0x50,0x47,0x3a,0x3a,0x42,0x47,0x4d,0x08,0x3a,0x0a,0x40,0x6e,0x61,0x6d,0x65,0x49,0x22,0x09,0x65,0x72,0x6f,0x31,0x06,0x3a,0x06,0x45,0x54,0x3a,0x0c,0x40,0x76,0x6f,0x6c,0x75,0x6d,0x65,0x69,0x69,0x3a,0x0b,0x40,0x70,0x69,0x74,0x63,0x68,0x69,0x69))
245(bytes(0x04,0x08,0x6f,0x3a,0x0d,0x52,0x50,0x47,0x3a,0x3a,0x42,0x47,0x53,0x08,0x3a,0x0a,0x40,0x6e,0x61,0x6d,0x65,0x49,0x22,0x17,0x6d,0x6f,0x6e,0x5f,0x68,0x73,0x65,0x61,0x6e,0x31,0x38,0x5f,0x73,0x6c,0x69,0x6d,0x65,0x31,0x06,0x3a,0x06,0x45,0x54,0x3a,0x0c,0x40,0x76,0x6f,0x6c,0x75,0x6d,0x65,0x69,0x55,0x3a,0x0b,0x40,0x70,0x69,0x74,0x63,0x68,0x69,0x69))
PictureDisplay(5,"ev_candle_hb1",0,0,0,0,100,100,0,0)
PictureMove(5,null,0,0,0,0,100,100,255,0,30,true)
ShowMessageFace("candle_fc1",0,0,2,6)
ShowMessage("\\n<Chandra>")
ShowMessage("...does this feel good?")
ShowMessageFace("",0,0,2,7)
ShowMessage("\\n<Luka>")
ShowMessage("Ah...Aaaah!!")
ShowMessageFace("",0,0,2,8)
ShowMessage("With her unique elasticity my penis is pinched between her breasts in a unique fashion.")
ShowMessage("Her wax breasts are soft and almost feel mushy.")
ShowMessageFace("",0,0,2,9)
ShowMessage("Completely wrapped in her breasts, they almost feel like a human's.")
ShowMessage("They're heave and squeeze my penis between them...")
ShowMessageFace("",0,0,2,10)
ShowMessage("\\n<Luka>")
ShowMessage("Auuu...Warm...")
ShowMessageFace("",0,0,2,11)
ShowMessage("It feels like she's having a fever.")
ShowMessage("Her wax breasts are very warm.")
ShowMessageFace("",0,0,2,12)
ShowMessage("Their heat seems to erode my penis...")
ShowMessage("It feels as if my penis is getting melted by their warmth.")
ShowMessageFace("candle_fc1",0,0,2,13)
ShowMessage("\\n<Chandra>")
ShowMessage("You seem to be feeling pleasure just from being between my breasts.")
ShowMessage("you'll be satisfied like this even if I don't move?")
ShowMessageFace("",0,0,2,14)
ShowMessage("\\n<Luka>")
ShowMessage("Auu...It feels good...")
ShowMessage("Ah, Aaaaah...")
ShowMessageFace("",0,0,2,15)
ShowMessage("The heat increases all of a sudden and my mind gets blurry...")
ShowMessage("My waist goes numb.")
ShowMessageFace("",0,0,2,16)
ShowMessage("My mouth hangs open from the overwhelming pleasure.")
ShowMessage("My power seems to be fading and a sweet feeling of release takes its place...")
RunCommonEvent(104)
PictureDisplay(5,"ev_candle_hb2",0,0,0,0,100,100,255,0)
RunCommonEvent(105)
ShowMessageFace("",0,0,2,17)
ShowMessage("\\n<Luka>")
ShowMessage("Aaaaah...")
ShowMessageFace("",0,0,2,18)
ShowMessage("I shoot out my semen all to quickly.")
ShowMessage("The pleasure paralyzes me as I leak out my semen.")
ShowMessageFace("",0,0,2,19)
ShowMessage("The sense of ejaculation coupled with her warmth felt heavenly.")
ShowMessage("I quicky cover Chandra's chest with my semen...")
ShowMessageFace("candle_fc1",1,0,2,20)
ShowMessage("\\n<Chandra>")
ShowMessage("Fufu, you already came?")
ShowMessage("I didn't even move my breasts yet...")
ShowMessageFace("",0,0,2,21)
ShowMessage("\\n<Luka>")
ShowMessage("Haaaa...")
ShowMessageFace("",0,0,2,22)
ShowMessage("A large amount of semen shoots out of me and leaves me completely weakened.")
ShowMessage("However, my penis is still trapped between her breasts.")
ShowMessageFace("candle_fc1",1,0,2,23)
ShowMessage("\\n<Chandra>")
ShowMessage("Well then, I'll squeeze my breasts.")
ShowMessage("I'm sure it'll feel good...")
ShowMessageFace("",0,0,2,24)
ShowMessage("\\n<Luka>")
ShowMessage("Ah, Aaaah...")
ShowMessageFace("",0,0,2,25)
ShowMessage("Chandra puts both her hands on her breasts and squeezes them together.")
ShowMessage("she carefully tightens around my penis...")
ShowMessageFace("candle_fc1",1,0,2,26)
ShowMessage("\\n<Chandra>")
ShowMessage("Fufu, how long do you think you'll last?")
ShowMessage("I'm sure you'll come again in no time...")
ShowMessageFace("",0,0,2,27)
ShowMessage("\\n<Luka>")
ShowMessage("Ha...Auuu...")
ShowMessageFace("",0,0,2,28)
ShowMessage("She squeezes my penis tightly in her chest.")
ShowMessage("The pleasure doubles as she forces her unique textured breasts on my penis.")
ShowMessageFace("",0,0,2,29)
ShowMessage("On top of that the melting heat from her breasts becomes stronger.")
ShowMessage("My penis goes numb and I get dizzy from the pleasure of her sweet touch.")
ShowMessageFace("",0,0,2,30)
ShowMessage("\\n<Luka>")
ShowMessage("Fuaa...It feels nice and warm...")
ShowMessageFace("candle_fc1",1,0,2,31)
ShowMessage("\\n<Chandra>")
ShowMessage("Ufufu, you seem to be melting in pleasure.")
ShowMessage("Now, just come...")
ShowMessageFace("",0,0,2,32)
ShowMessage("\\n<Luka>")
ShowMessage("Auuu...")
ShowMessageFace("",0,0,2,33)
ShowMessage("The pleasure makes my vision go pure white.")
ShowMessage("My penis is filled with a sweet pleasure from being wrapped in her warm breasts.")
ShowMessageFace("",0,0,2,34)
ShowMessage("\\n<Luka>")
ShowMessage("Haa...Aaaaaah...")
RunCommonEvent(104)
PictureDisplay(5,"ev_candle_hb3",0,0,0,0,100,100,255,0)
RunCommonEvent(105)
ShowMessageFace("",0,0,2,35)
ShowMessage("I shoot out my cloudy semen.")
ShowMessage("Immersed in these dreamy sensation I release a lot of semen...")
ShowMessageFace("candle_fc1",1,0,2,36)
ShowMessage("\\n<Chandra>")
ShowMessage("Ufufu, you let out so much white stuff.")
ShowMessage("Do my breasts feel that good?")
ShowMessageFace("",0,0,2,37)
ShowMessage("\\n<Luka>")
ShowMessage("Auuu...That felt good...")
ShowMessageFace("candle_fc1",1,0,2,38)
ShowMessage("\\n<Chandra>")
ShowMessage("You shot out quite a lot on my breasts.")
ShowMessage("Well then I'll use them again next time.")
ShowMessageFace("",0,0,2,39)
ShowMessage("\\n<Luka>")
ShowMessage("Haaa...")
ShowMessageFace("",0,0,2,40)
ShowMessage("Only after coming twice my semen is depleted...")
ShowMessage("All I can do is lay there immersed in ecstasy.")
221()
PictureClear(5)
246(2)
ShowMessageFace("",0,0,2,41)
ShowMessage("・・・・・・・・")
RunCommonEvent(3998)
0()
