// EVENT 0075
Name "Skill: Play 351-360"

ChangeVariable(11,11,0,2,1,5)
If(1,100,0,351,0)
 If(1,11,0,1,0)
  ShowMessageFace("scylla_s_fc1",0,0,2,1)
  ShowMessage("【セシール】")
  ShowMessage("うふふっ……")
  355("interrupt_skill(3296)")
  EndEventProcessing()
  0()
 EndIf()
 If(1,11,0,2,0)
  ShowMessageFace("scylla_s_fc1",2,0,2,2)
  ShowMessage("【セシール】")
  ShowMessage("ああ忙しい、忙しい……")
  ShowMessageFace("",0,0,2,3)
  ShowMessage("セシールは周囲を掃除している……")
  EndEventProcessing()
  0()
 EndIf()
 If(1,11,0,3,0)
  ShowMessageFace("scylla_s_fc1",0,0,2,4)
  ShowMessage("【セシール】")
  ShowMessage("さあ、がんばりましょう♪")
  355("interrupt_skill(3300)")
  EndEventProcessing()
  0()
 EndIf()
 If(1,11,0,4,0)
  ShowMessageFace("scylla_s_fc1",0,0,2,5)
  ShowMessage("【セシール】")
  ShowMessage("お食事です、どうぞ……")
  ShowMessageFace("",0,0,2,6)
  ShowMessage("セシールからの差し入れだ！")
  250(bytes(0x04,0x08,0x6f,0x3a,0x0c,0x52,0x50,0x47,0x3a,0x3a,0x53,0x45,0x08,0x3a,0x0a,0x40,0x6e,0x61,0x6d,0x65,0x49,0x22,0x0a,0x49,0x74,0x65,0x6d,0x31,0x06,0x3a,0x06,0x45,0x54,0x3a,0x0b,0x40,0x70,0x69,0x74,0x63,0x68,0x69,0x69,0x3a,0x0c,0x40,0x76,0x6f,0x6c,0x75,0x6d,0x65,0x69,0x55))
  ChangeInventory_Item(373,0,0,1)
  ShowMessageFace("",0,0,2,7)
  ShowMessage("「お子様ランチ」を手に入れた！")
  EndEventProcessing()
  0()
 EndIf()
 If(1,11,0,5,0)
  ShowMessageFace("scylla_s_fc1",0,0,2,8)
  ShowMessage("【セシール】")
  ShowMessage("触手で失礼……")
  355("interrupt_skill(2789)")
  EndEventProcessing()
  0()
 EndIf()
 0()
EndIf()
If(1,100,0,352,0)
 If(1,11,0,1,0)
  ShowMessageFace("vouivre_fc1",2,0,2,9)
  ShowMessage("【ヴィーヴィー】")
  ShowMessage("静まって、私の闇の半身……！")
  ShowMessageFace("",0,0,2,10)
  ShowMessage("ヴィーヴィーは一人で遊んでいる……")
  EndEventProcessing()
  0()
 EndIf()
 If(1,11,0,2,0)
  ShowMessageFace("vouivre_fc1",0,0,2,11)
  ShowMessage("【ヴィーヴィー】")
  ShowMessage("さあ、お前の罪を数えろ！")
  ShowMessageFace("",0,0,2,12)
  ShowMessage("ヴィーヴィーはヒーローごっこをしている……")
  EndEventProcessing()
  0()
 EndIf()
 If(1,11,0,3,0)
  ShowMessageFace("vouivre_fc1",0,0,2,13)
  ShowMessage("【ヴィーヴィー】")
  ShowMessage("お手玉だよ～！")
  ShowMessageFace("",0,0,2,14)
  ShowMessage("ヴィーヴィーはジャグリングしている……")
  ShowMessage("しかし、誰も見ていない！")
  EndEventProcessing()
  0()
 EndIf()
 If(1,11,0,4,0)
  ShowMessageFace("vouivre_fc1",0,0,2,15)
  ShowMessage("【ヴィーヴィー】")
  ShowMessage("これ、あげる♪")
  ShowMessageFace("",0,0,2,16)
  ShowMessage("ヴィーヴィーからの差し入れだ！")
  250(bytes(0x04,0x08,0x6f,0x3a,0x0c,0x52,0x50,0x47,0x3a,0x3a,0x53,0x45,0x08,0x3a,0x0a,0x40,0x6e,0x61,0x6d,0x65,0x49,0x22,0x0a,0x49,0x74,0x65,0x6d,0x31,0x06,0x3a,0x06,0x45,0x54,0x3a,0x0b,0x40,0x70,0x69,0x74,0x63,0x68,0x69,0x69,0x3a,0x0c,0x40,0x76,0x6f,0x6c,0x75,0x6d,0x65,0x69,0x55))
  ChangeInventory_Item(450,0,0,1)
  ShowMessageFace("",0,0,2,17)
  ShowMessage("「ちぃぱっぱ」を手に入れた！")
  EndEventProcessing()
  0()
 EndIf()
 If(1,11,0,5,0)
  ShowMessageFace("vouivre_fc1",0,0,2,18)
  ShowMessage("【ヴィーヴィー】")
  ShowMessage("あははっ！")
  355("interrupt_skill(3295)")
  EndEventProcessing()
  0()
 EndIf()
 0()
EndIf()
If(1,100,0,353,0)
 If(1,11,0,1,0)
  ShowMessageFace("icemaze_fc1",0,0,2,19)
  ShowMessage("【イルマ】")
  ShowMessage("……………………")
  ShowMessageFace("",0,0,2,20)
  ShowMessage("イルマは流し目を送った……")
  ShowMessage("しかし、睨んでいるようにしか見えない！")
  EndEventProcessing()
  0()
 EndIf()
 If(1,11,0,2,0)
  ShowMessageFace("icemaze_fc1",0,0,2,21)
  ShowMessage("【イルマ】")
  ShowMessage("まったく、早く氷河期が来ないかしら……")
  ShowMessageFace("",0,0,2,22)
  ShowMessage("イルマは一人で愚痴を言っている……")
  EndEventProcessing()
  0()
 EndIf()
 If(1,11,0,3,0)
  ShowMessageFace("icemaze_fc1",0,0,2,23)
  ShowMessage("【イルマ】")
  ShowMessage("が……がんばって……")
  ShowMessageFace("",0,0,2,24)
  ShowMessage("イルマはみんなを応援した！")
  ShowMessage("しかし誰も聞いていない……")
  EndEventProcessing()
  0()
 EndIf()
 If(1,11,0,4,0)
  ShowMessageFace("icemaze_fc1",0,0,2,25)
  ShowMessage("【イルマ】")
  ShowMessage("これ、あげるわ。")
  ShowMessageFace("",0,0,2,26)
  ShowMessage("イルマからの差し入れだ！")
  250(bytes(0x04,0x08,0x6f,0x3a,0x0c,0x52,0x50,0x47,0x3a,0x3a,0x53,0x45,0x08,0x3a,0x0a,0x40,0x6e,0x61,0x6d,0x65,0x49,0x22,0x0a,0x49,0x74,0x65,0x6d,0x31,0x06,0x3a,0x06,0x45,0x54,0x3a,0x0b,0x40,0x70,0x69,0x74,0x63,0x68,0x69,0x69,0x3a,0x0c,0x40,0x76,0x6f,0x6c,0x75,0x6d,0x65,0x69,0x55))
  ChangeInventory_Item(424,0,0,1)
  ShowMessageFace("",0,0,2,27)
  ShowMessage("「アイスクリーム」を手に入れた！")
  EndEventProcessing()
  0()
 EndIf()
 If(1,11,0,5,0)
  ShowMessageFace("icemaze_fc1",2,0,2,28)
  ShowMessage("【イルマ】")
  ShowMessage("は……はっくしょん！")
  355("interrupt_skill(3075)")
  EndEventProcessing()
  0()
 EndIf()
 0()
EndIf()
If(1,100,0,354,0)
 If(1,11,0,1,0)
  ShowMessageFace("shirokuma_fc1",0,0,2,29)
  ShowMessage("【クヌート】")
  ShowMessage("さむさむ……")
  ShowMessageFace("",0,0,2,30)
  ShowMessage("クヌートは寒がっている……")
  EndEventProcessing()
  0()
 EndIf()
 If(1,11,0,2,0)
  ShowMessageFace("shirokuma_fc1",0,0,2,31)
  ShowMessage("【クヌート】")
  ShowMessage("ぬくぬく……")
  ShowMessageFace("",0,0,2,32)
  ShowMessage("クヌートは湯たんぽで温もっている……")
  EndEventProcessing()
  0()
 EndIf()
 If(1,11,0,3,0)
  ShowMessageFace("shirokuma_fc1",0,0,2,33)
  ShowMessage("【クヌート】")
  ShowMessage("おやすみ……")
  313(0,354,0,11)
  ShowMessageFace("",0,0,2,34)
  ShowMessage("クヌートは居眠りしている……")
  EndEventProcessing()
  0()
 EndIf()
 If(1,11,0,4,0)
  ShowMessageFace("shirokuma_fc1",0,0,2,35)
  ShowMessage("【クヌート】")
  ShowMessage("おいしいよ……")
  ShowMessageFace("",0,0,2,36)
  ShowMessage("クヌートからの差し入れだ！")
  250(bytes(0x04,0x08,0x6f,0x3a,0x0c,0x52,0x50,0x47,0x3a,0x3a,0x53,0x45,0x08,0x3a,0x0a,0x40,0x6e,0x61,0x6d,0x65,0x49,0x22,0x0a,0x49,0x74,0x65,0x6d,0x31,0x06,0x3a,0x06,0x45,0x54,0x3a,0x0b,0x40,0x70,0x69,0x74,0x63,0x68,0x69,0x69,0x3a,0x0c,0x40,0x76,0x6f,0x6c,0x75,0x6d,0x65,0x69,0x55))
  ChangeInventory_Item(390,0,0,1)
  ShowMessageFace("",0,0,2,37)
  ShowMessage("「クリームシチュー」を手に入れた！")
  EndEventProcessing()
  0()
 EndIf()
 If(1,11,0,5,0)
  ShowMessageFace("shirokuma_fc1",0,0,2,38)
  ShowMessage("【クヌート】")
  ShowMessage("ふー……")
  355("interrupt_skill(3075)")
  EndEventProcessing()
  0()
 EndIf()
 0()
EndIf()
If(1,100,0,355,0)
 If(1,11,0,1,0)
  ShowMessageFace("angels_fc1",0,0,2,39)
  ShowMessage("【エンジェルズ】")
  ShowMessage("じっ……")
  ShowMessageFace("",0,0,2,40)
  ShowMessage("エンジェルズは流し目を送った……")
  ShowMessage("しかし、睨んでいるようにしか見えない！")
  EndEventProcessing()
  0()
 EndIf()
 If(1,11,0,2,0)
  ShowMessageFace("angels_fc1",0,0,2,41)
  ShowMessage("【エンジェルズ】")
  ShowMessage("早く寝たいな……")
  ShowMessageFace("",0,0,2,42)
  ShowMessage("エンジェルズはぼーっとしている……")
  EndEventProcessing()
  0()
 EndIf()
 If(1,11,0,3,0)
  ShowMessageFace("angels_fc1",0,0,2,43)
  ShowMessage("【エンジェルズ】")
  ShowMessage("イリアス様にメッセージを……")
  ShowMessageFace("",0,0,2,44)
  ShowMessage("エンジェルズは地面に落書きをしている……")
  EndEventProcessing()
  0()
 EndIf()
 If(1,11,0,4,0)
  ShowMessageFace("angels_fc1",0,0,2,45)
  ShowMessage("【エンジェルズ】")
  ShowMessage("これを授けよう……")
  ShowMessageFace("",0,0,2,46)
  ShowMessage("エンジェルズからの差し入れだ！")
  250(bytes(0x04,0x08,0x6f,0x3a,0x0c,0x52,0x50,0x47,0x3a,0x3a,0x53,0x45,0x08,0x3a,0x0a,0x40,0x6e,0x61,0x6d,0x65,0x49,0x22,0x0a,0x49,0x74,0x65,0x6d,0x31,0x06,0x3a,0x06,0x45,0x54,0x3a,0x0b,0x40,0x70,0x69,0x74,0x63,0x68,0x69,0x69,0x3a,0x0c,0x40,0x76,0x6f,0x6c,0x75,0x6d,0x65,0x69,0x55))
  ChangeInventory_Item(301,0,0,1)
  ShowMessageFace("",0,0,2,47)
  ShowMessage("「りんご」を手に入れた！")
  EndEventProcessing()
  0()
 EndIf()
 If(1,11,0,5,0)
  ShowMessageFace("angels_fc1",0,0,2,48)
  ShowMessage("【エンジェルズ】")
  ShowMessage("はぁっ！！")
  355("interrupt_skill(3294)")
  EndEventProcessing()
  0()
 EndIf()
 0()
EndIf()
If(1,100,0,356,0)
 If(1,11,0,1,0)
  ShowMessageFace("trinity_fc1",3,0,2,49)
  ShowMessage("【トリニティ】")
  ShowMessage("聖なる力を補給しましょう……")
  ShowMessageFace("",0,0,2,50)
  ShowMessage("トリニティは食料を盗み食いしている……")
  EndEventProcessing()
  0()
 EndIf()
 If(1,11,0,2,0)
  ShowMessageFace("trinity_fc1",3,0,2,51)
  ShowMessage("【トリニティ】")
  ShowMessage("快楽の世界へ旅立ちましょう……")
  355("interrupt_skill(1658)")
  EndEventProcessing()
  0()
 EndIf()
 If(1,11,0,3,0)
  ShowMessageFace("trinity_fc1",3,0,2,52)
  ShowMessage("【トリニティ】")
  ShowMessage("神の光を……")
  355("interrupt_skill(1636)")
  EndEventProcessing()
  0()
 EndIf()
 If(1,11,0,4,0)
  ShowMessageFace("trinity_fc1",3,0,2,53)
  ShowMessage("【トリニティ】")
  ShowMessage("これを差し上げましょう……")
  ShowMessageFace("",0,0,2,54)
  ShowMessage("トリニティからの差し入れだ！")
  250(bytes(0x04,0x08,0x6f,0x3a,0x0c,0x52,0x50,0x47,0x3a,0x3a,0x53,0x45,0x08,0x3a,0x0a,0x40,0x6e,0x61,0x6d,0x65,0x49,0x22,0x0a,0x49,0x74,0x65,0x6d,0x31,0x06,0x3a,0x06,0x45,0x54,0x3a,0x0b,0x40,0x70,0x69,0x74,0x63,0x68,0x69,0x69,0x3a,0x0c,0x40,0x76,0x6f,0x6c,0x75,0x6d,0x65,0x69,0x55))
  ChangeInventory_Item(423,0,0,1)
  ShowMessageFace("",0,0,2,55)
  ShowMessage("「プリン」を手に入れた！")
  EndEventProcessing()
  0()
 EndIf()
 If(1,11,0,5,0)
  ShowMessageFace("trinity_fc1",3,0,2,56)
  ShowMessage("【トリニティ】")
  ShowMessage("イリアス様、ご加護を……")
  355("interrupt_skill(3302)")
  EndEventProcessing()
  0()
 EndIf()
 0()
EndIf()
If(1,100,0,357,0)
 If(1,11,0,1,0)
  ShowMessageFace("uranus_fc1",0,0,2,57)
  ShowMessage("【ウラヌス】")
  ShowMessage("何か御馳走はありませんか……？")
  ShowMessageFace("",0,0,2,58)
  ShowMessage("ウラヌスは食料を盗み食いしている……")
  EndEventProcessing()
  0()
 EndIf()
 If(1,11,0,2,0)
  ShowMessageFace("uranus_fc1",1,0,2,59)
  ShowMessage("【ウラヌス】")
  ShowMessage("楽しむ事も必要ですね……")
  ShowMessageFace("",0,0,2,60)
  ShowMessage("ウラヌスは陽気に歌って踊っている……")
  EndEventProcessing()
  0()
 EndIf()
 If(1,11,0,3,0)
  ShowMessageFace("uranus_fc1",0,0,2,61)
  ShowMessage("【ウラヌス】")
  ShowMessage("少し眠りましょう……")
  313(0,357,0,11)
  ShowMessageFace("",0,0,2,62)
  ShowMessage("ウラヌスは居眠りしている……")
  EndEventProcessing()
  0()
 EndIf()
 If(1,11,0,4,0)
  ShowMessageFace("uranus_fc1",1,0,2,63)
  ShowMessage("【ウラヌス】")
  ShowMessage("これを食べますか……？")
  ShowMessageFace("",0,0,2,64)
  ShowMessage("ウラヌスからの差し入れだ！")
  250(bytes(0x04,0x08,0x6f,0x3a,0x0c,0x52,0x50,0x47,0x3a,0x3a,0x53,0x45,0x08,0x3a,0x0a,0x40,0x6e,0x61,0x6d,0x65,0x49,0x22,0x0a,0x49,0x74,0x65,0x6d,0x31,0x06,0x3a,0x06,0x45,0x54,0x3a,0x0b,0x40,0x70,0x69,0x74,0x63,0x68,0x69,0x69,0x3a,0x0c,0x40,0x76,0x6f,0x6c,0x75,0x6d,0x65,0x69,0x55))
  ChangeInventory_Item(312,0,0,1)
  ShowMessageFace("",0,0,2,65)
  ShowMessage("「大根」を手に入れた！")
  EndEventProcessing()
  0()
 EndIf()
 If(1,11,0,5,0)
  ShowMessageFace("uranus_fc1",0,0,2,66)
  ShowMessage("【ウラヌス】")
  ShowMessage("少し運動をしましょう……")
  355("interrupt_skill(2695)")
  EndEventProcessing()
  0()
 EndIf()
 0()
EndIf()
If(1,100,0,358,0)
 If(1,11,0,1,0)
  ShowMessageFace("erisiel_fc1",0,0,2,67)
  ShowMessage("【エリシエル】")
  ShowMessage("甘い芳香を……")
  355("interrupt_skill(2921)")
  EndEventProcessing()
  0()
 EndIf()
 If(1,11,0,2,0)
  ShowMessageFace("erisiel_fc1",1,0,2,68)
  ShowMessage("【エリシエル】")
  ShowMessage("うふふっ……")
  ShowMessageFace("",0,0,2,69)
  ShowMessage("エリシエルはにっこり微笑んだ！")
  ShowMessage("しかし何も起きなかった……")
  EndEventProcessing()
  0()
 EndIf()
 If(1,11,0,3,0)
  ShowMessageFace("erisiel_fc1",0,0,2,70)
  ShowMessage("【エリシエル】")
  ShowMessage("私は楽園の花と化しましょう……")
  ShowMessageFace("",0,0,2,71)
  ShowMessage("エリシエルはどこかに隠れてしまった！")
  ShowMessage("誰も探そうとしない……")
  EndEventProcessing()
  0()
 EndIf()
 If(1,11,0,4,0)
  ShowMessageFace("erisiel_fc1",0,0,2,72)
  ShowMessage("【エリシエル】")
  ShowMessage("これを食べて下さい……")
  ShowMessageFace("",0,0,2,73)
  ShowMessage("エリシエルからの差し入れだ！")
  250(bytes(0x04,0x08,0x6f,0x3a,0x0c,0x52,0x50,0x47,0x3a,0x3a,0x53,0x45,0x08,0x3a,0x0a,0x40,0x6e,0x61,0x6d,0x65,0x49,0x22,0x0a,0x49,0x74,0x65,0x6d,0x31,0x06,0x3a,0x06,0x45,0x54,0x3a,0x0b,0x40,0x70,0x69,0x74,0x63,0x68,0x69,0x69,0x3a,0x0c,0x40,0x76,0x6f,0x6c,0x75,0x6d,0x65,0x69,0x55))
  ChangeInventory_Item(303,0,0,1)
  ShowMessageFace("",0,0,2,74)
  ShowMessage("「ぶどう」を手に入れた！")
  EndEventProcessing()
  0()
 EndIf()
 If(1,11,0,5,0)
  ShowMessageFace("erisiel_fc1",0,0,2,75)
  ShowMessage("【エリシエル】")
  ShowMessage("薙ぎ払いましょう……")
  355("interrupt_skill(2904)")
  EndEventProcessing()
  0()
 EndIf()
 0()
EndIf()
If(1,100,0,359,0)
 If(1,11,0,1,0)
  ShowMessageFace("cupid_fc1",0,0,2,76)
  ShowMessage("【キューピー】")
  ShowMessage("うふふっ……♪")
  355("interrupt_skill(3296)")
  EndEventProcessing()
  0()
 EndIf()
 If(1,11,0,2,0)
  ShowMessageFace("cupid_fc1",0,0,2,77)
  ShowMessage("【キューピー】")
  ShowMessage("お祈りするよ……♪")
  355("interrupt_skill(3302)")
  EndEventProcessing()
  0()
 EndIf()
 If(1,11,0,3,0)
  ShowMessageFace("cupid_fc1",0,0,2,78)
  ShowMessage("【キューピー】")
  ShowMessage("お昼寝するよ～♪")
  313(0,359,0,11)
  ShowMessageFace("",0,0,2,79)
  ShowMessage("キューピーは居眠りしている……")
  EndEventProcessing()
  0()
 EndIf()
 If(1,11,0,4,0)
  ShowMessageFace("cupid_fc1",0,0,2,80)
  ShowMessage("【キューピー】")
  ShowMessage("この子、お友達だよ～♪")
  ShowMessageFace("",0,0,2,81)
  ShowMessage("キューピーからの差し入れだ！")
  250(bytes(0x04,0x08,0x6f,0x3a,0x0c,0x52,0x50,0x47,0x3a,0x3a,0x53,0x45,0x08,0x3a,0x0a,0x40,0x6e,0x61,0x6d,0x65,0x49,0x22,0x0a,0x49,0x74,0x65,0x6d,0x31,0x06,0x3a,0x06,0x45,0x54,0x3a,0x0b,0x40,0x70,0x69,0x74,0x63,0x68,0x69,0x69,0x3a,0x0c,0x40,0x76,0x6f,0x6c,0x75,0x6d,0x65,0x69,0x55))
  ChangeInventory_Item(450,0,0,1)
  ShowMessageFace("",0,0,2,82)
  ShowMessage("「ちぃぱっぱ」を手に入れた！")
  EndEventProcessing()
  0()
 EndIf()
 If(1,11,0,5,0)
  ShowMessageFace("cupid_fc1",0,0,2,83)
  ShowMessage("【キューピー】")
  ShowMessage("あははっ……")
  355("interrupt_skill(3295)")
  EndEventProcessing()
  0()
 EndIf()
 0()
EndIf()
If(1,100,0,360,0)
 If(1,11,0,1,0)
  ShowMessageFace("valkyrie_fc1",0,0,2,84)
  ShowMessage("【ヴィクトリア】")
  ShowMessage("はっ……！")
  355("interrupt_skill(3292)")
  EndEventProcessing()
  0()
 EndIf()
 If(1,11,0,2,0)
  ShowMessageFace("valkyrie_fc1",0,0,2,85)
  ShowMessage("【ヴィクトリア】")
  ShowMessage("鍛錬は怠らないわ……")
  ShowMessageFace("",0,0,2,86)
  ShowMessage("ヴィクトリアはこっそり修行している……")
  EndEventProcessing()
  0()
 EndIf()
 If(1,11,0,3,0)
  ShowMessageFace("valkyrie_fc1",0,0,2,87)
  ShowMessage("【ヴィクトリア】")
  ShowMessage("じーっ……")
  ShowMessageFace("",0,0,2,88)
  ShowMessage("ヴィクトリアは流し目を送った……")
  ShowMessage("しかし、睨んでいるようにしか見えない！")
  EndEventProcessing()
  0()
 EndIf()
 If(1,11,0,4,0)
  ShowMessageFace("valkyrie_fc1",0,0,2,89)
  ShowMessage("【ヴィクトリア】")
  ShowMessage("これをあげるわ……")
  ShowMessageFace("",0,0,2,90)
  ShowMessage("ヴィクトリアからの差し入れだ！")
  250(bytes(0x04,0x08,0x6f,0x3a,0x0c,0x52,0x50,0x47,0x3a,0x3a,0x53,0x45,0x08,0x3a,0x0a,0x40,0x6e,0x61,0x6d,0x65,0x49,0x22,0x0a,0x49,0x74,0x65,0x6d,0x31,0x06,0x3a,0x06,0x45,0x54,0x3a,0x0b,0x40,0x70,0x69,0x74,0x63,0x68,0x69,0x69,0x3a,0x0c,0x40,0x76,0x6f,0x6c,0x75,0x6d,0x65,0x69,0x55))
  ChangeInventory_Item(363,0,0,1)
  ShowMessageFace("",0,0,2,91)
  ShowMessage("「カレーライス」を手に入れた！")
  EndEventProcessing()
  0()
 EndIf()
 If(1,11,0,5,0)
  ShowMessageFace("valkyrie_fc1",0,0,2,92)
  ShowMessage("【ヴィクトリア】")
  ShowMessage("行くわよ……！")
  355("interrupt_skill(3294)")
  EndEventProcessing()
  0()
 EndIf()
 0()
EndIf()
0()
