// EVENT 3044
Name "Rafflesia Girl"

If(0,25,1)
 JumpToLabel("反省会")
 0()
EndIf()
PictureDisplay(5,"80_rahure_st02",0,0,0,0,100,100,0,0)
PictureMove(5,null,0,0,0,0,100,100,255,0,30,true)
241(bytes(0x04,0x08,0x6f,0x3a,0x0d,0x52,0x50,0x47,0x3a,0x3a,0x42,0x47,0x4d,0x08,0x3a,0x0a,0x40,0x6e,0x61,0x6d,0x65,0x49,0x22,0x09,0x65,0x72,0x6f,0x31,0x06,0x3a,0x06,0x45,0x54,0x3a,0x0c,0x40,0x76,0x6f,0x6c,0x75,0x6d,0x65,0x69,0x69,0x3a,0x0b,0x40,0x70,0x69,0x74,0x63,0x68,0x69,0x69))
250(bytes(0x04,0x08,0x6f,0x3a,0x0c,0x52,0x50,0x47,0x3a,0x3a,0x53,0x45,0x08,0x3a,0x0a,0x40,0x6e,0x61,0x6d,0x65,0x49,0x22,0x16,0x6d,0x6f,0x6e,0x5f,0x65,0x72,0x6f,0x5f,0x6d,0x61,0x6b,0x69,0x74,0x75,0x6b,0x69,0x32,0x06,0x3a,0x06,0x45,0x54,0x3a,0x0b,0x40,0x70,0x69,0x74,0x63,0x68,0x69,0x69,0x3a,0x0c,0x40,0x76,0x6f,0x6c,0x75,0x6d,0x65,0x69,0x69))
ShowMessageFace("rahure_fc1",1,0,2,1)
ShowMessage("\\n<Rafflesia Girl>If you're done fighting back then you can help me with pollination now.")
ShowMessageFace("",0,0,2,2)
ShowMessage("As she speaks, I can feel her sinewy tentacles thread their way into and under my clothes, rubbing against me obscenely...")
ShowMessageFace("",0,0,2,3)
ShowMessage("\\n<Luka>Ahhh!")
PictureDisplay(5,"ev_rahure_st11",0,0,0,0,100,100,255,0)
ShowMessageFace("",0,0,2,4)
ShowMessage("Intertwining within her writhing tentacles, my body is drawn towards her floral orifice glistening with strange fluids.")
ShowMessageFace("",0,0,2,5)
ShowMessage("The viscous fluids lined the opening of her flowery maw, promising debauchery and pleasure. My strength drains with each passing moment as her liquids soak through my clothes and into my skin.")
ShowMessageFace("rahure_fc1",1,0,2,6)
ShowMessage("\\n<Rafflesia Girl>Don't get carried away yet, I said you were going to help me with pollination didn't I?")
245(bytes(0x04,0x08,0x6f,0x3a,0x0d,0x52,0x50,0x47,0x3a,0x3a,0x42,0x47,0x53,0x08,0x3a,0x0a,0x40,0x6e,0x61,0x6d,0x65,0x49,0x22,0x1a,0x6d,0x6f,0x6e,0x5f,0x68,0x73,0x65,0x61,0x6e,0x32,0x31,0x5f,0x74,0x65,0x6e,0x74,0x61,0x63,0x6c,0x65,0x32,0x06,0x3a,0x06,0x45,0x54,0x3a,0x0c,0x40,0x76,0x6f,0x6c,0x75,0x6d,0x65,0x69,0x55,0x3a,0x0b,0x40,0x70,0x69,0x74,0x63,0x68,0x69,0x69))
PictureDisplay(6,"ev_rahure_ct01",0,0,0,0,100,100,255,0)
ShowMessageFace("",0,0,2,7)
ShowMessage("With my her body obscuring my sight, I could feel her stamen crawling upwards towards the base of my penis. Leaking with what could only have been her pollen, the stamen begins to envelope my testicles, putting slight pressure on them as it reaches the base of my penis.")
ShowMessageFace("",0,0,2,8)
ShowMessage("\\n<Luka>Ahhh!")
ShowMessageFace("rahure_fc1",1,0,2,9)
ShowMessage("\\n<Rafflesia Girl>I need to make sure you get covered in enough of my pollen, surely you don't object?")
ShowMessageFace("",0,0,2,10)
ShowMessage("The violating stamen finally reaches the tip of my penis. The appendages writhe and then pulse, squeezing my lower body and clouding my mind.")
ShowMessageFace("",0,0,2,11)
ShowMessage("The tentacles ensnaring my body soon follow suit and lecherously throb against me as she begins coating me in her pollen.")
ShowMessageFace("",0,0,2,12)
ShowMessage("While the stamen at my groin repeats its motions and gives a drawn out squeeze along my sensitive flesh, the lustful embrace extracts a moan from me.")
ShowMessageFace("",0,0,2,13)
ShowMessage("\\n<Luka>Auu... That's so good...")
ShowMessageFace("rahure_fc1",1,0,2,14)
ShowMessage("\\n<Rafflesia Girl>You didn't listen to me the first time did you? If you're feeling this good with just my stamen, just wait until you feel the pistil...")
ShowMessageFace("",0,0,2,15)
ShowMessage("Shame and lust intermingle in me as my body is used, exploited and pollinated.")
ShowMessageFace("",0,0,2,16)
ShowMessage("\\n<Luka>Auuu... Not the stamen...")
ShowMessageFace("rahure_fc1",1,0,2,17)
ShowMessage("\\n<Rafflesia Girl>Hahaha, your body certainly doesn't mind.\nBut you can tell I'm still a female can't you?")
ShowMessageFace("",0,0,2,18)
ShowMessage("\\n<Luka>Auuu...")
ShowMessageFace("",0,0,2,19)
ShowMessage("She punctuates her sentence between pulses of her stamen ejecting copious amounts of pollen onto my raw flesh. Incapable of fighting back, it's all I can do to keep my lust from peaking...")
ShowMessageFace("rahure_fc1",1,0,2,21)
ShowMessage("\\n<Rafflesia Girl>...The preparations are finished.")
ShowMessageFace("rahure_fc1",1,0,2,22)
ShowMessage("\\n<Rafflesia Girl>Now, I'll use my pistil...\nMake sure you enjoy it as thoroughly as you did my stamen.")
245(bytes(0x04,0x08,0x6f,0x3a,0x0d,0x52,0x50,0x47,0x3a,0x3a,0x42,0x47,0x53,0x08,0x3a,0x0a,0x40,0x6e,0x61,0x6d,0x65,0x49,0x22,0x1e,0x6d,0x6f,0x6e,0x5f,0x68,0x73,0x65,0x61,0x6e,0x30,0x31,0x5f,0x69,0x6e,0x6e,0x65,0x72,0x77,0x6f,0x72,0x6b,0x73,0x5f,0x61,0x31,0x06,0x3a,0x06,0x45,0x54,0x3a,0x0c,0x40,0x76,0x6f,0x6c,0x75,0x6d,0x65,0x69,0x55,0x3a,0x0b,0x40,0x70,0x69,0x74,0x63,0x68,0x69,0x69))
PictureDisplay(5,"ev_rahure_st11",0,0,0,0,100,100,255,0)
PictureDisplay(6,"ev_rahure_ct11",0,0,0,0,100,100,255,0)
ShowMessageFace("",0,0,2,23)
ShowMessage("Her pistil glistens with sappy lubrication and coils around the base of my penis, forming a lewd collar around me before continuing its along its path.")
ShowMessageFace("",0,0,2,24)
ShowMessage("\\n<Luka>Ahhh!")
245(bytes(0x04,0x08,0x6f,0x3a,0x0d,0x52,0x50,0x47,0x3a,0x3a,0x42,0x47,0x53,0x08,0x3a,0x0a,0x40,0x6e,0x61,0x6d,0x65,0x49,0x22,0x1e,0x6d,0x6f,0x6e,0x5f,0x68,0x73,0x65,0x61,0x6e,0x31,0x30,0x5f,0x69,0x6e,0x6e,0x65,0x72,0x77,0x6f,0x72,0x6b,0x73,0x5f,0x62,0x32,0x06,0x3a,0x06,0x45,0x54,0x3a,0x0c,0x40,0x76,0x6f,0x6c,0x75,0x6d,0x65,0x69,0x55,0x3a,0x0b,0x40,0x70,0x69,0x74,0x63,0x68,0x69,0x69))
ShowMessageFace("",0,0,2,26)
ShowMessage("The pollen from before squelches as her pistil works its way sensually up my shaft before reaching my tip.")
ShowMessageFace("rahure_fc1",1,0,2,27)
ShowMessage("\\n<Rafflesia Girl>Once I've coaxed your seed from you, we can start again immediately. You can be my personal pollinator for the rest of your life.")
ShowMessageFace("rahure_fc1",1,0,2,28)
ShowMessage("\\n<Rafflesia Girl>All you have to do is let it out. I'll make it worth it.")
ShowMessageFace("rahure_fc1",1,0,2,29)
ShowMessage("\\n<Rafflesia Girl>Let me show you what you'll be looking forward to from now on...")
ShowMessageFace("",0,0,2,30)
ShowMessage("\\n<Luka>Ahiii!")
ShowMessageFace("",0,0,2,31)
ShowMessage("The pistil fiercely tightens around the base of my groin as it stimulates the shaft and head of my penis in alternating patterns. My body writhes and twists, briefly locking up in lustful shock against the relentless onslaught of pleasure.")
ShowMessageFace("rahure_fc1",1,0,2,33)
ShowMessage("\\n<Rafflesia Girl>This is how Rafflesia mate with stubborn males...\nYou'll be having plant sex for a long time...")
ShowMessageFace("rahure_fc1",1,0,2,34)
ShowMessage("\\n<Rafflesia Girl>You should be honest with yourself. You actually like this don't you?")
ShowMessageFace("",0,0,2,35)
ShowMessage("\\n<Luka>This... Ahhhh!")
ShowMessageFace("",0,0,2,36)
ShowMessage("This is incomparable to being with a human... not even close... The immorality of this forbidden union stirs a twisted, wanton desire in me.")
ShowMessageFace("rahure_fc1",1,0,2,38)
ShowMessage("\\n<Rafflesia Girl>You're feeling good, aren't you?\nSex with a plant is better than you ever imagined, right?")
ShowMessageFace("rahure_fc1",1,0,2,39)
ShowMessage("\\n<Rafflesia Girl>Just come with your penis and pollinate me...")
ShowMessageFace("",0,0,2,40)
ShowMessage("The pistil finally loosens its grip on my base and begins wringing my penis to break down the last bit of resistance left in me. While the tip of her pistil simultaneously bears down on my sensitive head, I feel sparks shoot along my spine.")
ShowMessageFace("",0,0,2,41)
ShowMessage("\\n<Luka>Auu... I'm going to come...")
ShowMessageFace("",0,0,2,42)
ShowMessage("I can't endure this anymore, I'm actually going to end up... Fertilizing a monster plant...")
ShowMessageFace("",0,0,2,43)
ShowMessage("I have to avoid that at any cost...")
ShowMessageFace("",0,0,2,44)
ShowMessage("\\n<Luka>No... No...\nThis... No...")
ShowMessageFace("rahure_fc1",1,0,2,45)
ShowMessage("\\n<Rafflesia Girl>It's useless to try to endure.\nYou can't escape anymore, just be my personal pollinator.")
ShowMessageFace("",0,0,2,46)
ShowMessage("The Rafflesia Girl laughs at me as I futilely try to hold out. Her pistil resumes its milking motions around my member as the remainder of her tentacles massage the rest of my body.")
ShowMessageFace("rahure_fc1",1,0,2,48)
ShowMessage("\\n<Rafflesia Girl>Come!\nPour your semen all over my pistil!")
ShowMessageFace("",0,0,2,49)
ShowMessage("I'm unable to endure her relentless ministrations any longer... It's absolutely forbidden, but I can't hold on any more as I feel a foreign sensation along the base of my spine and a tightening in my stomach...")
ShowMessageFace("",0,0,2,50)
ShowMessage("\\n<Luka>Aaaaah!")
RunCommonEvent(104)
PictureDisplay(5,"ev_rahure_st12",0,0,0,0,100,100,255,0)
PictureDisplay(6,"ev_rahure_ct12",0,0,0,0,100,100,255,0)
RunCommonEvent(105)
ShowMessageFace("",0,0,2,51)
ShowMessage("My penis erupts, spraying my thick seed all over the Rafflesia Girl's pistil as it tirelessly wrings out every drop throughout my ejaculation.")
ShowMessageFace("",0,0,2,52)
ShowMessage("\\n<Luka>No... I came...")
ShowMessageFace("",0,0,2,53)
ShowMessage("Incapable of resisting, without a doubt I've pollinated her...")
ShowMessageFace("",0,0,2,54)
ShowMessage("Breaking the worst taboo for a human... As I drench in the lustful secretions of this depraved mating, I can only wonder what kind of life awaits me...")
ShowMessageFace("rahure_fc1",1,0,2,55)
ShowMessage("\\n<Rafflesia Girl>Fufu... With that, I've been successfully fertilized. You remember what I said, don't you?")
ShowMessageFace("rahure_fc1",1,0,2,56)
ShowMessage("\\n<Rafflesia Girl>With genes like yours, you'll make the perfect pollinator... You must be happy right, you'll get to experience this every day from now on...")
ShowMessageFace("",0,0,2,57)
ShowMessage("\\n<Luka>Eh...?")
ShowMessageFace("rahure_fc1",1,0,2,58)
ShowMessage("\\n<Rafflesia Girl>I'll use you every hour of every day, whether you're awake or not. And when breeding season comes around again, I'll satisfy you in ways no human woman could.")
ShowMessageFace("",0,0,2,59)
ShowMessage("\\n<Luka>No...")
ShowMessageFace("",0,0,2,60)
ShowMessage("I struggle fruitlessly, trying to escape. I can't be stuck here. My sanity won't last under this kind of pressure!")
ShowMessageFace("rahure_fc1",1,0,2,61)
ShowMessage("\\n<Rafflesia Girl>Hahaha, don't worry.\nI'll be sure to feed you and take care of you properly.")
ShowMessageFace("",0,0,2,62)
ShowMessage("\\n<Luka>I don't want that! Let me g-oh!")
ShowMessageFace("",0,0,2,63)
ShowMessage("A tentacle is forces its way into my mouth, and releases sweet liquid down my throat. Ensnared in her writhing tentacles with my lower body locked in her floral mouth, I lose all hope of escape.")
ShowMessageFace("",0,0,2,64)
ShowMessage("\\n<Luka>Ghhmff... Mmff...")
ShowMessageFace("",0,0,2,65)
ShowMessage("And true to her word, her pistil once again begins stimulating me, reforming the lewd collar on my groin and coiling along my penis.")
RunCommonEvent(104)
PictureDisplay(5,"ev_rahure_st13",0,0,0,0,100,100,255,0)
PictureDisplay(6,"ev_rahure_ct13",0,0,0,0,100,100,255,0)
RunCommonEvent(105)
ShowMessageFace("",0,0,2,66)
ShowMessage("\\n<Luka>Mmmfff...")
ShowMessageFace("",0,0,2,67)
ShowMessage("With her tentacles forcing fluids into my mouth and dripping sap along my cheeks, I come pitifully under her assault.")
ShowMessageFace("rahure_fc1",1,0,2,68)
ShowMessage("\\n<Rafflesia Girl>Haha, are you happy?")
ShowMessageFace("rahure_fc1",1,0,2,69)
ShowMessage("\\n<Rafflesia Girl>Every breeding season, I'll make you this happy. Every day we'll practice for that time.")
ShowMessageFace("rahure_fc1",1,0,2,70)
ShowMessage("\\n<Rafflesia Girl>We'll keep going and going until you'll forget that there was ever a life before being joined to me. I'll take good care of you, my precious pollinator!")
ShowMessageFace("",0,0,2,72)
ShowMessage("\\n<Luka>Mmmfff...")
ShowMessageFace("",0,0,2,73)
ShowMessage("As the pistil wrings out my most recent offering, she begins the cycle anew.")
RunCommonEvent(104)
PictureDisplay(5,"ev_rahure_st14",0,0,0,0,100,100,255,0)
PictureDisplay(6,"ev_rahure_ct14",0,0,0,0,100,100,255,0)
RunCommonEvent(105)
ShowMessageFace("",0,0,2,74)
ShowMessage("As my strength fades, my last thought before I lose consciousness is how sweet her sap tastes. From now on, I'm kept only as her breeding slave.")
221()
PictureClear(5)
PictureClear(6)
246(2)
ShowMessageFace("",0,0,2,75)
ShowMessage("After that, I was never released.")
ShowMessage("Force fed like I was completely disabled, my only purpose is to breed with the Rafflesia Girl.")
ShowMessageFace("",0,0,2,76)
ShowMessage("My adventure ends in a cruel and disgraceful way...")
DefineLabel("反省会")
ShowMessageFace("",0,0,2,77)
ShowMessage("............")
221()
242(1)
Wait(120)
355("memory_interruption")
ShowMessageFace("",0,0,2,78)
ShowMessage("You hear Ilias' voice calling out to you...")
ShowMessage("Receive her evaluation?")
ShowChoices(strings("Receive Evaluation","Change Difficulty","Reincarnate"),3)
IfPlayerPicksChoice(0,null)
 241(bytes(0x04,0x08,0x6f,0x3a,0x0d,0x52,0x50,0x47,0x3a,0x3a,0x42,0x47,0x4d,0x08,0x3a,0x0a,0x40,0x6e,0x61,0x6d,0x65,0x49,0x22,0x0a,0x69,0x72,0x69,0x61,0x73,0x06,0x3a,0x06,0x45,0x54,0x3a,0x0c,0x40,0x76,0x6f,0x6c,0x75,0x6d,0x65,0x69,0x5f,0x3a,0x0b,0x40,0x70,0x69,0x74,0x63,0x68,0x69,0x6e))
 PictureDisplay(1,"bg001",0,0,0,0,100,100,255,0)
 222()
 PictureDisplay(5,"80_iriasu_st04",0,0,0,0,100,100,0,0)
 PictureMove(5,null,0,0,0,0,100,100,255,0,30,true)
 ShowMessageFace("iriasu_fc1",3,0,2,79)
 ShowMessage("\\n<Ilias>Inseminating a plant and breaking the taboo... \nThat's a serious crime, you know?")
 PictureDisplay(5,"80_iriasu_st01",0,0,0,0,100,100,255,0)
 ShowMessageFace("iriasu_fc1",0,0,2,80)
 ShowMessage("\\n<Ilias>The Rafflesia Girl uses standard attacks. \nHer Aroma of Intoxication is very powerful and will put your whole party in a Trance.")
 ShowMessageFace("iriasu_fc1",0,0,2,81)
 ShowMessage("\\n<Ilias>Just like any other plant monster, she is weak to Fire. \nBurn her down before she scatters her pollen.")
 ShowMessageFace("iriasu_fc1",0,0,2,82)
 ShowMessage("\\n<Ilias>Like all plant monsters, status ailments are ineffective. \nIt's better to use physical attacks or Fire magic.")
 PictureDisplay(5,"80_iriasu_st02",0,0,0,0,100,100,255,0)
 ShowMessageFace("iriasu_fc1",1,0,2,83)
 ShowMessage("\\n<Ilias>Now go, oh brave Luka.\nMake such a disgusting plant monster wither.")
 242(1)
 221()
 PictureClear(5)
 PictureClear(1)
 Wait(60)
 0()
IfPlayerPicksChoice(1,null)
 ShowMessageFace("",0,0,2,84)
 ShowMessage("Please choose a difficulty level.")
 RunCommonEvent(110)
 0()
IfPlayerPicksChoice(2,null)
 0()
404()
RunCommonEvent(3000)
0()
